{
"label":"VoidSW",
"icon":"voidsw.png",
"iconsel":"voidsw.png",
"launch":"launch.sh",
"rompath":"../../Roms/VOIDSW",
"imgpath":"../../Roms/VOIDSW/Imgs",
"useswap":0,
"shortname":0,
"hidebios":1,
"extlist":""
}
